*** Life<ConwayCell> 33x22 ***

Generation = 0, Population = 39.
.....*................
.......**........*.*..
......................
...........*..........
.....*....*...........
.*........*...........
......................
......................
.......*..............
......................
......*.....*.........
.................*...*
......................
...*..................
......................
.*.........*..........
..................*...
........*.............
....................*.
.................*....
.............*........
......*.....*.........
......................
...*..*............*..
......................
......................
...............*......
..*...*...............
*.....................
.............**.*.....
..................*...
..*...................
..*.....*.............

Generation = 8, Population = 0.
......................
......................
......................
......................
......................
......................
......................
......................
......................
......................
......................
......................
......................
......................
......................
......................
......................
......................
......................
......................
......................
......................
......................
......................
......................
......................
......................
......................
......................
......................
......................
......................
......................

*** Life<ConwayCell> 16x7 ***

Generation = 0, Population = 15.
.......
......*
..*...*
..*....
*......
.*.....
.......
.*.....
.......
*.*...*
..*....
..*.*..
.......
....*..
.......
.*.....

*** Life<ConwayCell> 4x21 ***

Generation = 0, Population = 11.
*....*.....*..**.....
................*...*
..*..................
**............*......

Generation = 5, Population = 0.
.....................
.....................
.....................
.....................

Generation = 10, Population = 0.
.....................
.....................
.....................
.....................

Generation = 15, Population = 0.
.....................
.....................
.....................
.....................

Generation = 20, Population = 0.
.....................
.....................
.....................
.....................

Generation = 25, Population = 0.
.....................
.....................
.....................
.....................

*** Life<ConwayCell> 32x43 ***

Generation = 0, Population = 37.
...........................................
...............*.....*.....................
........................................*..
................................*..........
........*..................................
...........................................
........*..................................
*..........*...............................
..................*.............*....*.....
............*..............................
...........*............**.................
.............................*.............
...........................................
...........................................
.*.........*...............................
.................*.........................
....*......................................
..................................*......*.
...............*.........*.................
...........................................
..................*........................
...........................*...............
.........................................*.
......................*....................
....*......................................
...........................................
........*...............*..........*......*
..........*................*..........*....
...........................................
...........................................
.....................*.....................
...........................................

Generation = 8, Population = 0.
...........................................
...........................................
...........................................
...........................................
...........................................
...........................................
...........................................
...........................................
...........................................
...........................................
...........................................
...........................................
...........................................
...........................................
...........................................
...........................................
...........................................
...........................................
...........................................
...........................................
...........................................
...........................................
...........................................
...........................................
...........................................
...........................................
...........................................
...........................................
...........................................
...........................................
...........................................
...........................................

*** Life<ConwayCell> 46x49 ***

Generation = 0, Population = 41.
..............*..................................
.....*.......................*...................
.................................................
.................................................
.................................................
...................*.............................
.......................................*.........
.................*...............................
....*.........................*..................
..............................................*..
.............*...................................
.......................*.........................
........*........................................
.....................................*......*....
........................*........................
.....................................*...........
........................*....*.................*.
...............*................*................
......*..........................................
................*................*.....*.........
.................................................
....................................*............
.................................................
.................................................
..............*..................................
.....................................*...........
.................................................
......................................*..........
.....*..*........................................
.................................................
..........*......................................
......................................*..........
.........................*.....................*.
.................................................
........................*........................
......................................*..........
.................................................
.................................................
.................................................
..*..............................................
.................................................
.....................*...........................
.....*...........................................
.................................................
.................................................
.......................................*.........

*** Life<ConwayCell> 24x29 ***

Generation = 0, Population = 13.
.............................
.............................
...................*.........
...................*.........
.............................
...*.........................
..............*..............
.............................
.............................
.............................
..............*..............
.............................
..*.......................*..
...*.........................
.............................
.............................
..........*...........*.*....
..*..........................
.............................
.............................
.............................
.............................
.............................
..........*..................

Generation = 8, Population = 0.
.............................
.............................
.............................
.............................
.............................
.............................
.............................
.............................
.............................
.............................
.............................
.............................
.............................
.............................
.............................
.............................
.............................
.............................
.............................
.............................
.............................
.............................
.............................
.............................

Generation = 16, Population = 0.
.............................
.............................
.............................
.............................
.............................
.............................
.............................
.............................
.............................
.............................
.............................
.............................
.............................
.............................
.............................
.............................
.............................
.............................
.............................
.............................
.............................
.............................
.............................
.............................

*** Life<ConwayCell> 5x24 ***

Generation = 0, Population = 39.
*.**.*...*..*.....*..*..
**....*.*..**.*..**.....
..*.**.***.........*...*
...*..*.........**....*.
..*..*...***..**.....**.

Generation = 2, Population = 38.
.*........*..*...*.*....
*...**...**..*..*..*....
.*..**..*****..**.*...*.
.*...*****.......*...*.*
...............**....*.*

Generation = 4, Population = 30.
.........*....**........
**.......******.*.**....
**.....*...***....*...*.
.....*..*..**..*.*....*.
........*...............

Generation = 6, Population = 17.
........***.......*.....
**............*..*.*....
**........*.....*..*....
.......***..............
........................

Generation = 8, Population = 15.
..................*.....
**......*.*......*.*....
**......*.*.......*.....
.......*................
........**..............

Generation = 10, Population = 11.
..................*.....
**...............*.*....
**.....**.........*.....
.......*................
........................

Generation = 12, Population = 12.
..................*.....
**...............*.*....
**.....**.........*.....
.......**...............
........................

Generation = 14, Population = 12.
..................*.....
**...............*.*....
**.....**.........*.....
.......**...............
........................

*** Life<ConwayCell> 34x40 ***

Generation = 0, Population = 3.
........................................
........................................
........................................
........................................
........................................
......................*.................
........................................
........................................
........................................
........................................
........................................
........................................
........................................
....................................*...
........................................
........................................
........................................
........................................
........................................
........................................
........................................
........................................
........................................
........................................
........................................
........................................
........................................
........................................
........................................
........................................
......*.................................
........................................
........................................
........................................

Generation = 5, Population = 0.
........................................
........................................
........................................
........................................
........................................
........................................
........................................
........................................
........................................
........................................
........................................
........................................
........................................
........................................
........................................
........................................
........................................
........................................
........................................
........................................
........................................
........................................
........................................
........................................
........................................
........................................
........................................
........................................
........................................
........................................
........................................
........................................
........................................
........................................

Generation = 10, Population = 0.
........................................
........................................
........................................
........................................
........................................
........................................
........................................
........................................
........................................
........................................
........................................
........................................
........................................
........................................
........................................
........................................
........................................
........................................
........................................
........................................
........................................
........................................
........................................
........................................
........................................
........................................
........................................
........................................
........................................
........................................
........................................
........................................
........................................
........................................

*** Life<ConwayCell> 36x27 ***

Generation = 0, Population = 7.
...........................
.*.........................
...........................
...........................
...........................
...............*...........
...........................
...........................
...........................
.*.........................
.....*.....................
......*..*.................
...........................
...........................
...........................
...........................
...........................
...........................
...........................
...........................
...........................
...........................
...........................
...........................
...........................
...........................
...........................
...........................
...........................
...........................
......................*....
...........................
...........................
...........................
...........................
...........................

Generation = 4, Population = 0.
...........................
...........................
...........................
...........................
...........................
...........................
...........................
...........................
...........................
...........................
...........................
...........................
...........................
...........................
...........................
...........................
...........................
...........................
...........................
...........................
...........................
...........................
...........................
...........................
...........................
...........................
...........................
...........................
...........................
...........................
...........................
...........................
...........................
...........................
...........................
...........................

Generation = 8, Population = 0.
...........................
...........................
...........................
...........................
...........................
...........................
...........................
...........................
...........................
...........................
...........................
...........................
...........................
...........................
...........................
...........................
...........................
...........................
...........................
...........................
...........................
...........................
...........................
...........................
...........................
...........................
...........................
...........................
...........................
...........................
...........................
...........................
...........................
...........................
...........................
...........................

*** Life<ConwayCell> 27x4 ***

Generation = 0, Population = 22.
....
...*
....
.*..
....
...*
....
....
....
....
..*.
.*..
*...
*.**
....
.*..
*.*.
*...
.*..
...*
....
.*.*
..*.
**..
....
*.*.
....

Generation = 1, Population = 15.
....
....
....
....
....
....
....
....
....
....
....
.*..
*.*.
.*..
.**.
.*..
*...
*...
....
....
..*.
..*.
*.*.
.*..
*...
....
....

Generation = 2, Population = 17.
....
....
....
....
....
....
....
....
....
....
....
.*..
*.*.
*...
***.
***.
**..
....
....
....
....
..**
..*.
**..
....
....
....

Generation = 3, Population = 12.
....
....
....
....
....
....
....
....
....
....
....
.*..
*...
*.*.
..*.
....
*.*.
....
....
....
....
..**
..**
.*..
....
....
....

*** Life<ConwayCell> 18x19 ***

Generation = 0, Population = 27.
........*.......*..
...................
.*.................
...................
...................
.............*.....
......*............
..*...........*....
.*.................
*.........*..*.....
*.*................
......*.....*..*...
...................
......*.......*....
....*...*...*......
............*..*...
...............*...
..**............*..

Generation = 10, Population = 0.
...................
...................
...................
...................
...................
...................
...................
...................
...................
...................
...................
...................
...................
...................
...................
...................
...................
...................

Generation = 20, Population = 0.
...................
...................
...................
...................
...................
...................
...................
...................
...................
...................
...................
...................
...................
...................
...................
...................
...................
...................

*** Life<ConwayCell> 6x5 ***

Generation = 0, Population = 20.
*****
*.***
....*
...**
***.*
.****

Generation = 5, Population = 5.
.....
.....
..***
....*
...*.
.....

Generation = 10, Population = 4.
.....
...**
...**
.....
.....
.....

Generation = 15, Population = 4.
.....
...**
...**
.....
.....
.....

*** Life<ConwayCell> 39x37 ***

Generation = 0, Population = 43.
....................*................
.............*.......................
.....................................
.....................................
....*................................
.....................................
.....................................
..............*.......*..............
............*.......................*
...*...*...........*.................
............*........................
................*....................
.......................*.............
.....................................
.....................................
.........................*...........
...................**................
...................*.................
........*............................
...............*.....................
...............................*.....
..............................*......
................*....................
...................*.................
..........*.............*............
*..................*..*..............
.....*....*..........................
...........*.....................*...
.....................................
*..........*......................*..
........................*............
.....................................
...............*.*...................
.....................................
.....................*...............
.....................................
...*.....................*..*........
.....................................
...........................*.........

Generation = 1, Population = 4.
.....................................
.....................................
.....................................
.....................................
.....................................
.....................................
.....................................
.....................................
.....................................
.....................................
.....................................
.....................................
.....................................
.....................................
.....................................
.....................................
...................**................
...................**................
.....................................
.....................................
.....................................
.....................................
.....................................
.....................................
.....................................
.....................................
.....................................
.....................................
.....................................
.....................................
.....................................
.....................................
.....................................
.....................................
.....................................
.....................................
.....................................
.....................................
.....................................

Generation = 2, Population = 4.
.....................................
.....................................
.....................................
.....................................
.....................................
.....................................
.....................................
.....................................
.....................................
.....................................
.....................................
.....................................
.....................................
.....................................
.....................................
.....................................
...................**................
...................**................
.....................................
.....................................
.....................................
.....................................
.....................................
.....................................
.....................................
.....................................
.....................................
.....................................
.....................................
.....................................
.....................................
.....................................
.....................................
.....................................
.....................................
.....................................
.....................................
.....................................
.....................................

Generation = 3, Population = 4.
.....................................
.....................................
.....................................
.....................................
.....................................
.....................................
.....................................
.....................................
.....................................
.....................................
.....................................
.....................................
.....................................
.....................................
.....................................
.....................................
...................**................
...................**................
.....................................
.....................................
.....................................
.....................................
.....................................
.....................................
.....................................
.....................................
.....................................
.....................................
.....................................
.....................................
.....................................
.....................................
.....................................
.....................................
.....................................
.....................................
.....................................
.....................................
.....................................

Generation = 4, Population = 4.
.....................................
.....................................
.....................................
.....................................
.....................................
.....................................
.....................................
.....................................
.....................................
.....................................
.....................................
.....................................
.....................................
.....................................
.....................................
.....................................
...................**................
...................**................
.....................................
.....................................
.....................................
.....................................
.....................................
.....................................
.....................................
.....................................
.....................................
.....................................
.....................................
.....................................
.....................................
.....................................
.....................................
.....................................
.....................................
.....................................
.....................................
.....................................
.....................................

Generation = 5, Population = 4.
.....................................
.....................................
.....................................
.....................................
.....................................
.....................................
.....................................
.....................................
.....................................
.....................................
.....................................
.....................................
.....................................
.....................................
.....................................
.....................................
...................**................
...................**................
.....................................
.....................................
.....................................
.....................................
.....................................
.....................................
.....................................
.....................................
.....................................
.....................................
.....................................
.....................................
.....................................
.....................................
.....................................
.....................................
.....................................
.....................................
.....................................
.....................................
.....................................

Generation = 6, Population = 4.
.....................................
.....................................
.....................................
.....................................
.....................................
.....................................
.....................................
.....................................
.....................................
.....................................
.....................................
.....................................
.....................................
.....................................
.....................................
.....................................
...................**................
...................**................
.....................................
.....................................
.....................................
.....................................
.....................................
.....................................
.....................................
.....................................
.....................................
.....................................
.....................................
.....................................
.....................................
.....................................
.....................................
.....................................
.....................................
.....................................
.....................................
.....................................
.....................................

Generation = 7, Population = 4.
.....................................
.....................................
.....................................
.....................................
.....................................
.....................................
.....................................
.....................................
.....................................
.....................................
.....................................
.....................................
.....................................
.....................................
.....................................
.....................................
...................**................
...................**................
.....................................
.....................................
.....................................
.....................................
.....................................
.....................................
.....................................
.....................................
.....................................
.....................................
.....................................
.....................................
.....................................
.....................................
.....................................
.....................................
.....................................
.....................................
.....................................
.....................................
.....................................

Generation = 8, Population = 4.
.....................................
.....................................
.....................................
.....................................
.....................................
.....................................
.....................................
.....................................
.....................................
.....................................
.....................................
.....................................
.....................................
.....................................
.....................................
.....................................
...................**................
...................**................
.....................................
.....................................
.....................................
.....................................
.....................................
.....................................
.....................................
.....................................
.....................................
.....................................
.....................................
.....................................
.....................................
.....................................
.....................................
.....................................
.....................................
.....................................
.....................................
.....................................
.....................................

*** Life<ConwayCell> 28x49 ***

Generation = 0, Population = 2.
.................................................
.................................................
.................................................
.................................................
.................................................
.................................................
.................................................
.................................................
.................................................
.................................................
.................................................
.................................................
.................................................
.................................................
.................................................
.................................................
.................................................
.................................................
..............................................*..
.................................................
.................................................
.................................................
.................................................
.................................................
.................................................
.................................................
.................................................
.......................*.........................

*** Life<ConwayCell> 31x37 ***

Generation = 0, Population = 23.
.....................................
.....................................
.....................................
.....................................
.....................................
.......................*.............
....*.*..............................
......*...............*..............
.....................................
.....................................
.....................................
.....................................
...........*.........................
.....................................
.............................*.......
.....................................
...................*............*....
.....................................
....................*.............*..
.................*...................
.....................................
....................*......*.........
..........*.................*........
...............*...............*.....
...........*....*....................
..............*......................
.....................................
......................*..............
..................................*..
.....................................
.....................................

Generation = 7, Population = 0.
.....................................
.....................................
.....................................
.....................................
.....................................
.....................................
.....................................
.....................................
.....................................
.....................................
.....................................
.....................................
.....................................
.....................................
.....................................
.....................................
.....................................
.....................................
.....................................
.....................................
.....................................
.....................................
.....................................
.....................................
.....................................
.....................................
.....................................
.....................................
.....................................
.....................................
.....................................

*** Life<ConwayCell> 16x42 ***

Generation = 0, Population = 17.
....................*......*.*......*..*..
..........................................
..........................................
..*....................*..................
............*....................*........
..............*...........................
..........................................
...................................*......
..............*...........................
...*....................*.................
.............................*............
..........................................
..........................................
..........................................
..........................................
................*.............*...........

Generation = 10, Population = 0.
..........................................
..........................................
..........................................
..........................................
..........................................
..........................................
..........................................
..........................................
..........................................
..........................................
..........................................
..........................................
..........................................
..........................................
..........................................
..........................................

Generation = 20, Population = 0.
..........................................
..........................................
..........................................
..........................................
..........................................
..........................................
..........................................
..........................................
..........................................
..........................................
..........................................
..........................................
..........................................
..........................................
..........................................
..........................................

*** Life<ConwayCell> 37x42 ***

Generation = 0, Population = 14.
..........................................
..........................................
..........................................
..................*.......................
..........................................
..........................................
..*.......................................
...............................*..........
.*........................................
....*.....................................
..........................................
..........................................
..........................................
......*...................................
..........................................
..........................................
..........*...............................
..........................................
..........................................
..........................................
..........................................
..........................................
..........................................
....................................*.....
..........................................
...............*........*...*.............
..*.......................................
..........................................
..........................................
..........................................
..........................................
..........................................
..........................................
..........................................
...............*....*.....................
..........................................
..........................................

Generation = 5, Population = 0.
..........................................
..........................................
..........................................
..........................................
..........................................
..........................................
..........................................
..........................................
..........................................
..........................................
..........................................
..........................................
..........................................
..........................................
..........................................
..........................................
..........................................
..........................................
..........................................
..........................................
..........................................
..........................................
..........................................
..........................................
..........................................
..........................................
..........................................
..........................................
..........................................
..........................................
..........................................
..........................................
..........................................
..........................................
..........................................
..........................................
..........................................

Generation = 10, Population = 0.
..........................................
..........................................
..........................................
..........................................
..........................................
..........................................
..........................................
..........................................
..........................................
..........................................
..........................................
..........................................
..........................................
..........................................
..........................................
..........................................
..........................................
..........................................
..........................................
..........................................
..........................................
..........................................
..........................................
..........................................
..........................................
..........................................
..........................................
..........................................
..........................................
..........................................
..........................................
..........................................
..........................................
..........................................
..........................................
..........................................
..........................................

Generation = 15, Population = 0.
..........................................
..........................................
..........................................
..........................................
..........................................
..........................................
..........................................
..........................................
..........................................
..........................................
..........................................
..........................................
..........................................
..........................................
..........................................
..........................................
..........................................
..........................................
..........................................
..........................................
..........................................
..........................................
..........................................
..........................................
..........................................
..........................................
..........................................
..........................................
..........................................
..........................................
..........................................
..........................................
..........................................
..........................................
..........................................
..........................................
..........................................

Generation = 20, Population = 0.
..........................................
..........................................
..........................................
..........................................
..........................................
..........................................
..........................................
..........................................
..........................................
..........................................
..........................................
..........................................
..........................................
..........................................
..........................................
..........................................
..........................................
..........................................
..........................................
..........................................
..........................................
..........................................
..........................................
..........................................
..........................................
..........................................
..........................................
..........................................
..........................................
..........................................
..........................................
..........................................
..........................................
..........................................
..........................................
..........................................
..........................................

Generation = 25, Population = 0.
..........................................
..........................................
..........................................
..........................................
..........................................
..........................................
..........................................
..........................................
..........................................
..........................................
..........................................
..........................................
..........................................
..........................................
..........................................
..........................................
..........................................
..........................................
..........................................
..........................................
..........................................
..........................................
..........................................
..........................................
..........................................
..........................................
..........................................
..........................................
..........................................
..........................................
..........................................
..........................................
..........................................
..........................................
..........................................
..........................................
..........................................

*** Life<ConwayCell> 18x31 ***

Generation = 0, Population = 16.
...............................
......*.................*......
................*..............
...............................
*...............*..............
...................*...........
..............................*
....*..........................
...*...........................
...................*...........
..*..........*.................
...............................
........................*......
.*...........*.................
............*..................
...............................
...............................
...............................

*** Life<ConwayCell> 45x50 ***

Generation = 0, Population = 4.
..................................................
..................................................
..................................................
..................................................
..................................................
..................................................
..................................................
..................................................
..............................*...................
..................................................
..................................................
..................................................
..................................................
..................................................
..................................................
..................................................
..................................................
..................................................
..................................................
..................................................
..................................................
..................................................
..................................................
..................................................
.....................................*............
..................................................
..................................................
..................................................
....................*.............................
..................................................
..................................................
..................................................
..................................................
..................................................
..................................................
..................................................
..................................................
..................................................
..................................................
..................................................
............................................*.....
..................................................
..................................................
..................................................
..................................................

Generation = 7, Population = 0.
..................................................
..................................................
..................................................
..................................................
..................................................
..................................................
..................................................
..................................................
..................................................
..................................................
..................................................
..................................................
..................................................
..................................................
..................................................
..................................................
..................................................
..................................................
..................................................
..................................................
..................................................
..................................................
..................................................
..................................................
..................................................
..................................................
..................................................
..................................................
..................................................
..................................................
..................................................
..................................................
..................................................
..................................................
..................................................
..................................................
..................................................
..................................................
..................................................
..................................................
..................................................
..................................................
..................................................
..................................................
..................................................

*** Life<ConwayCell> 36x24 ***

Generation = 0, Population = 1.
........................
........................
........................
........................
........................
........................
........................
........................
........................
*.......................
........................
........................
........................
........................
........................
........................
........................
........................
........................
........................
........................
........................
........................
........................
........................
........................
........................
........................
........................
........................
........................
........................
........................
........................
........................
........................

*** Life<ConwayCell> 9x48 ***

Generation = 0, Population = 1.
................................................
................................................
................................................
................................................
......*.........................................
................................................
................................................
................................................
................................................

Generation = 8, Population = 0.
................................................
................................................
................................................
................................................
................................................
................................................
................................................
................................................
................................................

Generation = 16, Population = 0.
................................................
................................................
................................................
................................................
................................................
................................................
................................................
................................................
................................................

*** Life<ConwayCell> 47x31 ***

Generation = 0, Population = 33.
...............................
..............*................
...............................
...............................
.....................*.........
.*......................*....*.
..................*.......*....
...............................
..*.......................*....
...............................
...............................
.............................*.
...............................
...............................
...............................
..............................*
......*........................
..................*.......*....
...............................
...............................
..............................*
.................*.............
...............................
...............................
...............................
......*........................
...............................
...............................
..........................*....
................*..*...........
...............................
.**............................
.........*.....................
...............................
...............................
..*.................*..........
.............*.................
...............................
...............................
...............................
..*..*....*....................
...............................
.........................*.....
.........*.....................
...............................
*..............................
.......................*.......

*** Life<ConwayCell> 43x43 ***

Generation = 0, Population = 25.
...........*...............................
...........................................
...........................................
*..........................................
............*..............................
.....*.*...................................
...........................................
...........................................
...........................................
...........................................
...........................................
...........................................
...........................................
.............*.............................
........................*..................
...........................................
........................................*..
.........................*.................
...........................................
...........................................
...........................................
...........................................
...........................................
..............................*............
...........................................
................*....................*.....
...........................................
...........................................
.....................*....................*
...........................................
..........................*................
...........................................
...........................................
...........................................
...............*.........................*.
.....................................*.....
...........................................
...........................................
.........*.*...............................
....................*..................*...
...........................................
.....*............*...*....................
...........................................

Generation = 2, Population = 0.
...........................................
...........................................
...........................................
...........................................
...........................................
...........................................
...........................................
...........................................
...........................................
...........................................
...........................................
...........................................
...........................................
...........................................
...........................................
...........................................
...........................................
...........................................
...........................................
...........................................
...........................................
...........................................
...........................................
...........................................
...........................................
...........................................
...........................................
...........................................
...........................................
...........................................
...........................................
...........................................
...........................................
...........................................
...........................................
...........................................
...........................................
...........................................
...........................................
...........................................
...........................................
...........................................
...........................................

Generation = 4, Population = 0.
...........................................
...........................................
...........................................
...........................................
...........................................
...........................................
...........................................
...........................................
...........................................
...........................................
...........................................
...........................................
...........................................
...........................................
...........................................
...........................................
...........................................
...........................................
...........................................
...........................................
...........................................
...........................................
...........................................
...........................................
...........................................
...........................................
...........................................
...........................................
...........................................
...........................................
...........................................
...........................................
...........................................
...........................................
...........................................
...........................................
...........................................
...........................................
...........................................
...........................................
...........................................
...........................................
...........................................

Generation = 6, Population = 0.
...........................................
...........................................
...........................................
...........................................
...........................................
...........................................
...........................................
...........................................
...........................................
...........................................
...........................................
...........................................
...........................................
...........................................
...........................................
...........................................
...........................................
...........................................
...........................................
...........................................
...........................................
...........................................
...........................................
...........................................
...........................................
...........................................
...........................................
...........................................
...........................................
...........................................
...........................................
...........................................
...........................................
...........................................
...........................................
...........................................
...........................................
...........................................
...........................................
...........................................
...........................................
...........................................
...........................................

Generation = 8, Population = 0.
...........................................
...........................................
...........................................
...........................................
...........................................
...........................................
...........................................
...........................................
...........................................
...........................................
...........................................
...........................................
...........................................
...........................................
...........................................
...........................................
...........................................
...........................................
...........................................
...........................................
...........................................
...........................................
...........................................
...........................................
...........................................
...........................................
...........................................
...........................................
...........................................
...........................................
...........................................
...........................................
...........................................
...........................................
...........................................
...........................................
...........................................
...........................................
...........................................
...........................................
...........................................
...........................................
...........................................

Generation = 10, Population = 0.
...........................................
...........................................
...........................................
...........................................
...........................................
...........................................
...........................................
...........................................
...........................................
...........................................
...........................................
...........................................
...........................................
...........................................
...........................................
...........................................
...........................................
...........................................
...........................................
...........................................
...........................................
...........................................
...........................................
...........................................
...........................................
...........................................
...........................................
...........................................
...........................................
...........................................
...........................................
...........................................
...........................................
...........................................
...........................................
...........................................
...........................................
...........................................
...........................................
...........................................
...........................................
...........................................
...........................................

Generation = 12, Population = 0.
...........................................
...........................................
...........................................
...........................................
...........................................
...........................................
...........................................
...........................................
...........................................
...........................................
...........................................
...........................................
...........................................
...........................................
...........................................
...........................................
...........................................
...........................................
...........................................
...........................................
...........................................
...........................................
...........................................
...........................................
...........................................
...........................................
...........................................
...........................................
...........................................
...........................................
...........................................
...........................................
...........................................
...........................................
...........................................
...........................................
...........................................
...........................................
...........................................
...........................................
...........................................
...........................................
...........................................

*** Life<ConwayCell> 23x30 ***

Generation = 0, Population = 7.
..............................
..............................
..............................
..............................
..............................
..............................
..........................*...
..............................
..............................
..............................
..............................
.........*....................
..............................
............................*.
...........................*..
..............................
..............................
....*..*......................
..............................
..................*...........
..............................
..............................
..............................

Generation = 5, Population = 0.
..............................
..............................
..............................
..............................
..............................
..............................
..............................
..............................
..............................
..............................
..............................
..............................
..............................
..............................
..............................
..............................
..............................
..............................
..............................
..............................
..............................
..............................
..............................

Generation = 10, Population = 0.
..............................
..............................
..............................
..............................
..............................
..............................
..............................
..............................
..............................
..............................
..............................
..............................
..............................
..............................
..............................
..............................
..............................
..............................
..............................
..............................
..............................
..............................
..............................

Generation = 15, Population = 0.
..............................
..............................
..............................
..............................
..............................
..............................
..............................
..............................
..............................
..............................
..............................
..............................
..............................
..............................
..............................
..............................
..............................
..............................
..............................
..............................
..............................
..............................
..............................

Generation = 20, Population = 0.
..............................
..............................
..............................
..............................
..............................
..............................
..............................
..............................
..............................
..............................
..............................
..............................
..............................
..............................
..............................
..............................
..............................
..............................
..............................
..............................
..............................
..............................
..............................

Generation = 25, Population = 0.
..............................
..............................
..............................
..............................
..............................
..............................
..............................
..............................
..............................
..............................
..............................
..............................
..............................
..............................
..............................
..............................
..............................
..............................
..............................
..............................
..............................
..............................
..............................

*** Life<ConwayCell> 47x11 ***

Generation = 0, Population = 2.
...........
...........
...........
...........
...........
...........
...........
...........
...........
...........
...........
...........
...........
...........
...........
...........
...........
...........
...........
...........
...........
...........
.........*.
...........
...........
...........
...........
...........
...........
...........
...........
...........
...........
...........
...........
...........
...........
...........
...........
...........
...........
..*........
...........
...........
...........
...........
...........

Generation = 3, Population = 0.
...........
...........
...........
...........
...........
...........
...........
...........
...........
...........
...........
...........
...........
...........
...........
...........
...........
...........
...........
...........
...........
...........
...........
...........
...........
...........
...........
...........
...........
...........
...........
...........
...........
...........
...........
...........
...........
...........
...........
...........
...........
...........
...........
...........
...........
...........
...........

Generation = 6, Population = 0.
...........
...........
...........
...........
...........
...........
...........
...........
...........
...........
...........
...........
...........
...........
...........
...........
...........
...........
...........
...........
...........
...........
...........
...........
...........
...........
...........
...........
...........
...........
...........
...........
...........
...........
...........
...........
...........
...........
...........
...........
...........
...........
...........
...........
...........
...........
...........

Generation = 9, Population = 0.
...........
...........
...........
...........
...........
...........
...........
...........
...........
...........
...........
...........
...........
...........
...........
...........
...........
...........
...........
...........
...........
...........
...........
...........
...........
...........
...........
...........
...........
...........
...........
...........
...........
...........
...........
...........
...........
...........
...........
...........
...........
...........
...........
...........
...........
...........
...........

Generation = 12, Population = 0.
...........
...........
...........
...........
...........
...........
...........
...........
...........
...........
...........
...........
...........
...........
...........
...........
...........
...........
...........
...........
...........
...........
...........
...........
...........
...........
...........
...........
...........
...........
...........
...........
...........
...........
...........
...........
...........
...........
...........
...........
...........
...........
...........
...........
...........
...........
...........

Generation = 15, Population = 0.
...........
...........
...........
...........
...........
...........
...........
...........
...........
...........
...........
...........
...........
...........
...........
...........
...........
...........
...........
...........
...........
...........
...........
...........
...........
...........
...........
...........
...........
...........
...........
...........
...........
...........
...........
...........
...........
...........
...........
...........
...........
...........
...........
...........
...........
...........
...........

Generation = 18, Population = 0.
...........
...........
...........
...........
...........
...........
...........
...........
...........
...........
...........
...........
...........
...........
...........
...........
...........
...........
...........
...........
...........
...........
...........
...........
...........
...........
...........
...........
...........
...........
...........
...........
...........
...........
...........
...........
...........
...........
...........
...........
...........
...........
...........
...........
...........
...........
...........

Generation = 21, Population = 0.
...........
...........
...........
...........
...........
...........
...........
...........
...........
...........
...........
...........
...........
...........
...........
...........
...........
...........
...........
...........
...........
...........
...........
...........
...........
...........
...........
...........
...........
...........
...........
...........
...........
...........
...........
...........
...........
...........
...........
...........
...........
...........
...........
...........
...........
...........
...........

Generation = 24, Population = 0.
...........
...........
...........
...........
...........
...........
...........
...........
...........
...........
...........
...........
...........
...........
...........
...........
...........
...........
...........
...........
...........
...........
...........
...........
...........
...........
...........
...........
...........
...........
...........
...........
...........
...........
...........
...........
...........
...........
...........
...........
...........
...........
...........
...........
...........
...........
...........

*** Life<ConwayCell> 5x18 ***

Generation = 0, Population = 23.
*......*..*.......
...*...***.***.*.*
...*..*.*.........
..*.........**...*
.*......*...*.*...

Generation = 6, Population = 16.
.......*..........
......*.**........
..**.*...**.*.....
..**..*.....*.....
.......**.........

Generation = 12, Population = 7.
..................
...........*......
..**.......*......
..**.......*......
..................

Generation = 18, Population = 7.
..................
...........*......
..**.......*......
..**.......*......
..................

Generation = 24, Population = 7.
..................
...........*......
..**.......*......
..**.......*......
..................
